<svg width="32" height="32" version="1.1" id="Layer_1" xmlns="http://www.w3.org/2000/svg" xmlns:xlink="http://www.w3.org/1999/xlink" x="0px" y="0px"
	 viewBox="0 0 133.7 71.1" enable-background="new 0 0 133.7 71.1" xml:space="preserve">
<g>
	<linearGradient id="SVGID_1_" gradientUnits="userSpaceOnUse" x1="51.8715" y1="-7.2952" x2="86.0858" y2="90.4599">
		<stop  offset="0" style="stop-color:#FFFFFF"/>
		<stop  offset="0.2615" style="stop-color:#333D73"/>
		<stop  offset="1" style="stop-color:#191D2E"/>
	</linearGradient>
	<ellipse fill="url(#SVGID_1_)" cx="66.9" cy="35.5" rx="66.9" ry="35.5"/>
	<ellipse fill="#5A69AA" cx="66.9" cy="35.5" rx="64.2" ry="32.8"/>
	<g>
		<path fill="#FFFFFF" d="M82,56.3c-1.3,0-1-1-0.9-1.3l7-35.3c0.1-0.6,0.6-1,1.2-1h14.3c4.9,0,8.6,1.4,10.8,4.1
			c3.3,4,2.3,9.4,2.2,9.9c-1.1,7.3-5.4,10.9-8.7,12.5c-3.6,1.8-6.9,1.9-7.1,1.9l-8.4,0l-1.8,8.3c-0.2,1-0.6,1-1.2,1
			C89.5,56.3,82.8,56.3,82,56.3z M98.7,39.1L98.7,39.1c0,0,0.1,0,0.1,0c1.1,0,6.5-0.3,7.5-6.3l0,0l0,0c0,0,0.7-2.9-0.7-4.6
			c-0.7-0.9-1.9-1.4-3.6-1.4h-5.6l-2.2,12.3H98.7z"/>
		<path fill="#222222" d="M91.7,46.2h9c0,0,12.9-0.2,14.9-13.7c0,0,2.7-13-12.2-13H89.3l-7.2,35.9h7.5L91.7,46.2z M107.2,32.9
			c-1.2,7.4-8.5,7-8.5,7h-5c-0.2,0-0.4-0.2-0.4-0.4l2.3-13.3c0-0.2,0.2-0.3,0.4-0.3h6.1C108.9,25.9,107.2,32.9,107.2,32.9z"/>
	</g>
	<path fill="#FFFFFF" d="M70.9,47l-0.3-0.3c-0.2-0.2-0.2-0.5-0.2-0.7L74,28.2c0.1-0.3,0-0.6-0.3-0.9c-0.2-0.2-0.4-0.2-0.6-0.2l-7,0
		c-0.3,1.5-1.1,5.2-1.9,9.1c-0.5,2.5-1,4.9-1.4,6.8c-0.2,0.9-0.4,1.7-0.5,2.2c-0.1,0.3-0.1,0.5-0.1,0.6c-0.1,0.3-0.2,0.9-0.9,0.9
		h-8.5c-0.5,0-0.9-0.5-0.8-0.9l7-36c0.1-0.4,0.5-0.7,0.9-0.7l8.1,0c0.2,0,0.4,0.1,0.6,0.2c0.3,0.2,0.4,0.6,0.4,0.9l-1.5,8.3h8
		c3.2,0,5.7,1,7.2,2.8c2.4,2.9,1.7,6.8,1.7,7.1L81.1,47l-0.8,0H70.9z"/>
	<path fill="#222222" d="M59.8,10.1l-7,35.8h8.3c0,0,4.1-19.7,4.1-19.7c0-0.1,0.1-0.1,0.1-0.1h7.9c1.1,0,2,1,1.8,2.1l-3.5,17.9
		c0,0,0,0,0,0h8.9c0,0,0,0,0,0l3-17.8c0,0,1.6-8.8-8-8.9c-4.2,0-8.8,0-8.8,0l1.7-9.4c0,0,0,0,0,0L59.8,10.1
		C59.8,10.1,59.8,10.1,59.8,10.1z"/>
	<g>
		<path fill="#FFFFFF" d="M20,56.3c-1.3,0-1-1-0.9-1.3l7-35.3c0.1-0.6,0.6-1,1.2-1h14.3c4.9,0,8.6,1.4,10.8,4.1
			c3.3,4,2.3,9.4,2.2,9.9c-1.1,7.3-5.4,10.9-8.7,12.5c-3.6,1.8-6.9,1.9-7.1,1.9l-8.4,0l-1.8,8.3c-0.2,1-0.6,1-1.2,1
			C27.5,56.3,20.8,56.3,20,56.3z M36.7,39.1L36.7,39.1c0,0,0.1,0,0.1,0c1.1,0,6.5-0.3,7.5-6.3l0,0l0,0c0,0,0.7-2.9-0.7-4.6
			c-0.7-0.9-1.9-1.4-3.6-1.4h-5.6l-2.2,12.3H36.7z"/>
		<path fill="#222222" d="M29.7,46.2h9c0,0,12.9-0.2,14.9-13.7c0,0,2.7-13-12.2-13H27.3l-7.2,35.9h7.5L29.7,46.2z M45.2,32.9
			c-1.2,7.4-8.5,7-8.5,7h-5c-0.2,0-0.4-0.2-0.4-0.4l2.3-13.3c0-0.2,0.2-0.3,0.4-0.3h6.1C47,25.9,45.2,32.9,45.2,32.9z"/>
	</g>
</g>
</svg>
