<?xml version="1.0" encoding="UTF-8" standalone="no" ?>
<svg width="32" height="32" viewBox="0 0 256 255" version="1.1" xmlns="http://www.w3.org/2000/svg" xmlns:xlink="http://www.w3.org/1999/xlink" preserveAspectRatio="xMidYMid">
    <g fill="#464342">
        <path d="M18.1239675,127.500488 C18.1239675,170.795707 43.284813,208.211252 79.7700163,225.941854 L27.5938862,82.985626 C21.524813,96.5890081 18.1239675,111.643057 18.1239675,127.500488 L18.1239675,127.500488 Z M201.345041,121.980878 C201.345041,108.462829 196.489366,99.1011382 192.324683,91.8145041 C186.780098,82.8045528 181.583089,75.1745041 181.583089,66.1645528 C181.583089,56.1097886 189.208976,46.7501789 199.950569,46.7501789 C200.435512,46.7501789 200.89548,46.8105366 201.367935,46.8375935 C181.907772,29.0091707 155.981008,18.1239675 127.50465,18.1239675 C89.2919675,18.1239675 55.6727154,37.7298211 36.1147317,67.4258211 C38.6809756,67.5028293 41.0994472,67.5569431 43.1536911,67.5569431 C54.5946016,67.5569431 72.3043902,66.1687154 72.3043902,66.1687154 C78.2007154,65.8211382 78.8958699,74.4814309 73.0057886,75.1786667 C73.0057886,75.1786667 67.0803252,75.8759024 60.4867642,76.2213984 L100.318699,194.699447 L124.25574,122.909138 L107.214049,76.2172358 C101.323967,75.8717398 95.744,75.1745041 95.744,75.1745041 C89.8497561,74.8290081 90.540748,65.8169756 96.4349919,66.1645528 C96.4349919,66.1645528 114.498602,67.5527805 125.246439,67.5527805 C136.685268,67.5527805 154.397138,66.1645528 154.397138,66.1645528 C160.297626,65.8169756 160.990699,74.4772683 155.098537,75.1745041 C155.098537,75.1745041 149.160585,75.8717398 142.579512,76.2172358 L182.107577,193.798244 L193.017756,157.340098 C197.746472,142.211122 201.345041,131.34465 201.345041,121.980878 L201.345041,121.980878 Z M129.42361,137.068228 L96.6056585,232.43135 C106.404423,235.31187 116.76722,236.887415 127.50465,236.887415 C140.242211,236.887415 152.457366,234.685398 163.827512,230.68722 C163.534049,230.218927 163.267642,229.721496 163.049106,229.180358 L129.42361,137.068228 L129.42361,137.068228 Z M223.481756,75.0225691 C223.95213,78.5066667 224.218537,82.2467642 224.218537,86.2699187 C224.218537,97.3694959 222.145561,109.846894 215.901659,125.448325 L182.490537,222.04774 C215.00878,203.085008 236.881171,167.854829 236.881171,127.502569 C236.883252,108.485724 232.025496,90.603187 223.481756,75.0225691 L223.481756,75.0225691 Z M127.50465,0 C57.2003902,0 0,57.1962276 0,127.500488 C0,197.813073 57.2003902,255.00722 127.50465,255.00722 C197.806829,255.00722 255.015545,197.813073 255.015545,127.500488 C255.013463,57.1962276 197.806829,0 127.50465,0 L127.50465,0 Z M127.50465,249.162927 C60.4243252,249.162927 5.84637398,194.584976 5.84637398,127.500488 C5.84637398,60.4201626 60.4222439,5.84637398 127.50465,5.84637398 C194.582894,5.84637398 249.156683,60.4201626 249.156683,127.500488 C249.156683,194.584976 194.582894,249.162927 127.50465,249.162927 L127.50465,249.162927 Z"></path>
    </g>
</svg>
