<?xml version="1.0" encoding="UTF-8"?>
<!DOCTYPE svg PUBLIC "-//W3C//DTD SVG 1.1//EN" "http://www.w3.org/Graphics/SVG/1.1/DTD/svg11.dtd">
<svg width="32" height="32" viewBox="0 0 256 230" version="1.1" xmlns="http://www.w3.org/2000/svg" xmlns:xlink="http://www.w3.org/1999/xlink" preserveAspectRatio="xMidYMid">
  <path d="M0.754124112,114.750341 C0.754124112,133.964682 19.5166032,151.90205 49.0972,162.012525 C43.1902309,191.75023 48.0385672,215.718618 64.2325395,225.058104 C80.878267,234.657205 105.676296,228.01262 129.212992,207.438816 C152.155865,227.182074 175.343729,234.952033 191.522612,225.586005 C208.152063,215.959037 213.210383,190.365003 207.140052,159.699094 C237.94981,149.512664 255.183937,134.217604 255.183937,114.750341 C255.183937,95.9814665 236.386646,79.743862 207.205024,69.6979922 C213.73997,37.7647117 208.20272,14.3779364 191.338416,4.65275505 C175.079459,-4.72292197 151.622419,3.44893641 128.342126,23.7092591 C104.122937,2.20452764 80.8973474,-4.36113675 64.049392,5.39238954 C47.8062377,14.7947358 43.1711096,39.1986962 49.0971999,69.4869405 C20.5154295,79.4522024 0.754124112,96.0565259 0.754124112,114.750341 Z" fill="#FFFFFF"></path>
  <path d="M201.024553,79.6741178 C198.680534,78.8673056 196.251651,78.1039308 193.750774,77.3819828 C194.161823,75.7044085 194.539085,74.048553 194.87452,72.4208515 C200.380632,45.6934862 196.780544,24.1617345 184.487315,17.0725656 C172.699651,10.2749914 153.421826,17.3625515 133.952151,34.3064132 C132.079912,35.9357235 130.202444,37.6607573 128.325782,39.4686441 C127.075343,38.2725027 125.826916,37.1165813 124.581707,36.0109348 C104.176918,17.8934548 83.7242671,10.2585012 71.4431045,17.3681823 C59.6667022,24.1854643 56.1792302,44.4273621 61.135535,69.7570841 C61.6141524,72.2036638 62.1736119,74.7021273 62.8062718,77.2424195 C59.9116418,78.0641131 57.1171595,78.9401037 54.443337,79.872 C30.5209112,88.2124116 15.2429599,101.283896 15.2429599,114.842444 C15.2429599,128.845826 31.6438523,142.891438 56.5609175,151.408012 C58.527271,152.080088 60.5676292,152.715563 62.6703284,153.318862 C61.9877958,156.066288 61.3941493,158.758611 60.895824,161.384572 C56.1699796,186.27469 59.8605624,206.038372 71.6055931,212.812619 C83.7371375,219.808478 104.097282,212.617552 123.922903,195.287579 C125.489873,193.917687 127.062473,192.464943 128.637888,190.942216 C130.679856,192.908569 132.718604,194.769546 134.746495,196.515092 C153.949914,213.040264 172.916437,219.713157 184.650608,212.920007 C196.770086,205.904037 200.708827,184.673131 195.595261,158.842269 C195.204725,156.86948 194.75024,154.854058 194.239849,152.802841 C195.669668,152.380128 197.073345,151.943742 198.44203,151.490061 C224.345691,142.907526 241.199459,129.032848 241.199459,114.842444 C241.199459,101.234828 225.428813,88.0752616 201.024553,79.6741178 L201.024553,79.6741178 L201.024553,79.6741178 Z" fill="#53C1DE"></path>
  <path d="M195.406228,142.327554 C194.170671,142.73659 192.902938,143.131953 191.611073,143.515249 C188.751435,134.46214 184.891928,124.835494 180.168899,114.889502 C184.675947,105.180405 188.386237,95.6768327 191.165838,86.6824446 C193.477279,87.3513024 195.720748,88.0567605 197.882571,88.8012318 C218.792119,95.9993967 231.546671,106.641998 231.546671,114.842444 C231.546671,123.577414 217.772142,134.916625 195.406228,142.327554 L195.406228,142.327554 L195.406228,142.327554 Z M186.125876,160.71692 C188.387041,172.138985 188.710007,182.46586 187.212216,190.538809 C185.866457,197.79288 183.160056,202.629329 179.813756,204.566322 C172.692813,208.688063 157.464736,203.330363 141.041722,189.197876 C139.159026,187.577816 137.262655,185.847956 135.360251,184.017143 C141.72707,177.053863 148.090269,168.958794 154.300632,159.968427 C165.223968,158.999127 175.544007,157.41446 184.902787,155.251029 C185.363708,157.110397 185.773147,158.93397 186.125876,160.71692 L186.125876,160.71692 L186.125876,160.71692 Z M92.2766379,203.854027 C85.3193904,206.311064 79.7782875,206.381449 76.4287698,204.450086 C69.301392,200.339205 66.3383881,184.470825 70.3800911,163.184817 C70.8430228,160.747085 71.3940362,158.242992 72.0291092,155.683394 C81.2853291,157.730187 91.5297533,159.203041 102.479233,160.090696 C108.731425,168.888007 115.278429,176.974228 121.87611,184.054548 C120.434627,185.446158 118.998774,186.771004 117.570966,188.019431 C108.804223,195.682539 100.018979,201.119472 92.2766379,203.854027 L92.2766379,203.854027 L92.2766379,203.854027 Z M59.6827903,142.274061 C48.6649364,138.508267 39.5659765,133.613901 33.3290683,128.273094 C27.7248202,123.473647 24.8953464,118.708789 24.8953464,114.842444 C24.8953464,106.614649 37.1620299,96.1200565 57.6207133,88.9870479 C60.1030888,88.1215145 62.7016999,87.3058539 65.3984478,86.5396638 C68.2259104,95.7371626 71.9349945,105.353351 76.4110731,115.077329 C71.8770778,124.945696 68.1153056,134.715124 65.2600911,144.020411 C63.3375774,143.467789 61.4749914,142.886209 59.6827903,142.274061 L59.6827903,142.274061 L59.6827903,142.274061 Z M70.6085405,67.9033464 C66.3621178,46.2014643 69.182341,29.8303347 76.2791516,25.7222687 C83.8384918,21.3459356 100.554306,27.585659 118.172255,43.2292097 C119.298413,44.2290778 120.428996,45.2756009 121.562797,46.3583221 C114.997694,53.4076732 108.510618,61.4331626 102.31393,70.1785891 C91.6870133,71.1635758 81.5145828,72.7458288 72.1618351,74.8646158 C71.5738193,72.4992804 71.0529709,70.1753716 70.6085405,67.9033464 L70.6085405,67.9033464 L70.6085405,67.9033464 Z M168.075965,91.970564 C165.840139,88.1086441 163.544785,84.3380235 161.204789,80.6703661 C168.414216,81.5817502 175.321589,82.7915664 181.808264,84.2720629 C179.860813,90.5133951 177.43354,97.0390825 174.576314,103.728867 C172.526706,99.8375868 170.35885,95.9141304 168.075965,91.970564 L168.075965,91.970564 L168.075965,91.970564 Z M128.328999,53.2568484 C132.781348,58.0804274 137.240132,63.465879 141.625716,69.3090337 C137.206347,69.1002922 132.732279,68.9916983 128.22121,68.9916983 C123.752773,68.9916983 119.311686,69.097879 114.919667,69.3030007 C119.309675,63.5141429 123.80707,58.1359308 128.328999,53.2568484 L128.328999,53.2568484 L128.328999,53.2568484 Z M88.3274407,92.0373291 C86.0940267,95.9101084 83.9663912,99.8122483 81.9489584,103.721628 C79.1379858,97.0551705 76.7332349,90.4997203 74.7688924,84.1699041 C81.2157486,82.7272144 88.0905452,81.5475633 95.254121,80.6534737 C92.8811438,84.3549159 90.5668876,88.1532883 88.3274407,92.0365247 L88.3274407,92.0373291 L88.3274407,92.0373291 Z M95.4604493,149.719981 C88.0591736,148.894265 81.0810118,147.775347 74.6357643,146.372474 C76.6314784,139.92964 79.0893197,133.234225 81.9598177,126.424182 C83.9824792,130.330746 86.1185609,134.234495 88.3656497,138.115721 L88.3660518,138.115721 C90.6549694,142.069744 93.0263378,145.942925 95.4604493,149.719981 L95.4604493,149.719981 L95.4604493,149.719981 Z M128.59606,177.108562 C124.02104,172.172367 119.457684,166.712107 115.000911,160.838787 C119.327371,161.008515 123.738293,161.095391 128.22121,161.095391 C132.826797,161.095391 137.379695,160.991623 141.861003,160.792132 C137.460939,166.771231 133.018244,172.239937 128.59606,177.108562 L128.59606,177.108562 L128.59606,177.108562 Z M174.668418,126.077084 C177.688534,132.960729 180.234457,139.621153 182.255912,145.954187 C175.704484,147.44876 168.631001,148.652544 161.178244,149.547036 C163.523872,145.829907 165.839334,141.994532 168.114576,138.049357 C170.416365,134.05793 172.601917,130.060469 174.668418,126.077084 L174.668418,126.077084 L174.668418,126.077084 Z M159.75325,133.226985 C156.221134,139.351277 152.594903,145.197649 148.913571,150.71623 C142.208502,151.195651 135.28142,151.442602 128.22121,151.442602 C121.189556,151.442602 114.34975,151.224207 107.763331,150.796669 C103.933587,145.205694 100.228525,139.342027 96.7189317,133.279673 L96.7197361,133.279673 C93.2193935,127.23381 89.9977754,121.136867 87.0786112,115.074112 C89.9969709,108.997279 93.2101429,102.893499 96.6903755,96.8584949 L96.6895711,96.8597015 C100.179054,90.8086096 103.851538,84.9734988 107.645888,79.4175145 C114.365838,78.9095366 121.256723,78.6444871 128.220808,78.6444871 L128.22121,78.6444871 C135.216666,78.6444871 142.116399,78.9115475 148.834337,79.4239498 C152.570771,84.9393119 156.218319,90.7555192 159.721477,96.8074156 C163.264453,102.927284 166.519051,108.990441 169.462347,114.936962 C166.5279,120.98564 163.280541,127.109933 159.75325,133.226985 L159.75325,133.226985 L159.75325,133.226985 Z M179.665747,25.4350982 C187.232327,29.7985609 190.174818,47.3963991 185.42082,70.472597 C185.117561,71.9450495 184.776095,73.4448515 184.405266,74.9647635 C175.030799,72.8017345 164.851129,71.192132 154.193245,70.1922639 C147.98449,61.3507117 141.550504,53.3127541 135.092386,46.3538978 C136.828682,44.6835633 138.562564,43.0908531 140.289206,41.5878335 C156.970834,27.0704415 172.562099,21.338696 179.665747,25.4350982 L179.665747,25.4350982 L179.665747,25.4350982 Z" fill="#FFFFFF"></path>
  <path d="M128.22121,94.6653008 C139.36455,94.6653008 148.398353,103.698702 148.398353,114.842444 C148.398353,125.985784 139.36455,135.019589 128.22121,135.019589 C117.07787,135.019589 108.044066,125.985784 108.044066,114.842444 C108.044066,103.698702 117.07787,94.6653008 128.22121,94.6653008" fill="#53C1DE"></path>
</svg>
